<?xml version="1.0" encoding="UTF-8" standalone="no"?>
<svg
   xmlns:dc="http://purl.org/dc/elements/1.1/"
   xmlns:cc="http://creativecommons.org/ns#"
   xmlns:rdf="http://www.w3.org/1999/02/22-rdf-syntax-ns#"
   xmlns:svg="http://www.w3.org/2000/svg"
   xmlns="http://www.w3.org/2000/svg"
   xmlns:xlink="http://www.w3.org/1999/xlink"
   xmlns:sodipodi="http://sodipodi.sourceforge.net/DTD/sodipodi-0.dtd"
   xmlns:inkscape="http://www.inkscape.org/namespaces/inkscape"
   sodipodi:docname="Battery.svg"
   inkscape:version="1.0alpha (487129e4ef, 2019-05-03)"
   id="svg5830"
   version="1.1"
   viewBox="0 0 98.956627 47.207466"
   height="47.207466mm"
   width="98.956627mm">
  <defs
     id="defs5824" />
  <sodipodi:namedview
     inkscape:window-maximized="1"
     inkscape:window-y="0"
     inkscape:window-x="2627"
     inkscape:window-height="1412"
     inkscape:window-width="2493"
     showgrid="false"
     inkscape:document-rotation="0"
     inkscape:current-layer="layer1"
     inkscape:document-units="mm"
     inkscape:cy="-10.65701"
     inkscape:cx="244.97898"
     inkscape:zoom="2.4691899"
     inkscape:pageshadow="2"
     inkscape:pageopacity="0.0"
     borderopacity="1.0"
     bordercolor="#666666"
     pagecolor="#ffffff"
     id="base" />
  <metadata
     id="metadata5827">
    <rdf:RDF>
      <cc:Work
         rdf:about="">
        <dc:format>image/svg+xml</dc:format>
        <dc:type
           rdf:resource="http://purl.org/dc/dcmitype/StillImage" />
        <dc:title></dc:title>
      </cc:Work>
    </rdf:RDF>
  </metadata>
  <g
     transform="translate(-28.867617,-121.84023)"
     id="layer1"
     inkscape:groupmode="layer"
     inkscape:label="Layer 1">
    <g
       id="g6637">
      <g
         id="g6492"
         inkscape:tile-cx="40.3742"
         inkscape:tile-cy="145.44396"
         inkscape:tile-w="23.013168"
         inkscape:tile-h="47.207465"
         inkscape:tile-x0="28.867616"
         inkscape:tile-y0="121.84023">
        <rect
           y="126.02136"
           x="29.867617"
           height="42.026337"
           width="21.013168"
           id="rect6407"
           style="opacity:1;fill:none;stroke:#000000;stroke-width:2;stroke-linecap:round;stroke-linejoin:round;stroke-miterlimit:4;stroke-dasharray:none;stop-opacity:1" />
        <rect
           y="122.84023"
           x="36.263088"
           height="2.7407413"
           width="8.2222233"
           id="rect6409"
           style="opacity:1;fill:#000000;fill-opacity:1;stroke:#000000;stroke-width:2;stroke-linecap:round;stroke-linejoin:round;stroke-miterlimit:4;stroke-dasharray:none;stop-opacity:1" />
        <rect
           style="opacity:1;fill:#000000;fill-opacity:1;stroke:none;stroke-width:2;stroke-linecap:round;stroke-linejoin:miter;stroke-miterlimit:4;stroke-dasharray:none;stop-opacity:1"
           id="use6423"
           width="14.694473"
           height="6.4055209"
           x="33.026962"
           y="129.52274"
           inkscape:tile-x0="44.020282"
           inkscape:tile-y0="175.7844" />
        <rect
           style="opacity:1;fill:#000000;fill-opacity:1;stroke:none;stroke-width:2;stroke-linecap:round;stroke-linejoin:miter;stroke-miterlimit:4;stroke-dasharray:none;stop-opacity:1"
           id="use6425"
           width="14.694473"
           height="6.4055209"
           x="33.026962"
           y="136.69691"
           inkscape:tile-x0="44.020282"
           inkscape:tile-y0="175.7844" />
        <rect
           style="opacity:1;fill:#000000;fill-opacity:1;stroke:none;stroke-width:2;stroke-linecap:round;stroke-linejoin:miter;stroke-miterlimit:4;stroke-dasharray:none;stop-opacity:1"
           id="use6427"
           width="14.694473"
           height="6.4055209"
           x="33.026962"
           y="143.87111"
           inkscape:tile-x0="44.020282"
           inkscape:tile-y0="175.7844" />
        <rect
           style="opacity:1;fill:#000000;fill-opacity:1;stroke:none;stroke-width:2;stroke-linecap:round;stroke-linejoin:miter;stroke-miterlimit:4;stroke-dasharray:none;stop-opacity:1"
           id="use6429"
           width="14.694473"
           height="6.4055209"
           x="33.026962"
           y="151.04529"
           inkscape:tile-x0="44.020282"
           inkscape:tile-y0="175.7844" />
        <rect
           style="opacity:1;fill:#000000;fill-opacity:1;stroke:none;stroke-width:2;stroke-linecap:round;stroke-linejoin:miter;stroke-miterlimit:4;stroke-dasharray:none;stop-opacity:1"
           id="use6431"
           width="14.694473"
           height="6.4055209"
           x="33.026962"
           y="158.21947"
           inkscape:tile-x0="44.020282"
           inkscape:tile-y0="175.7844" />
      </g>
      <use
         x="0"
         y="0"
         inkscape:tiled-clone-of="#g6492"
         xlink:href="#g6492"
         id="use6494"
         width="100%"
         height="100%" />
      <g
         id="g6595">
        <rect
           style="opacity:1;fill:none;stroke:#000000;stroke-width:2;stroke-linecap:round;stroke-linejoin:round;stroke-miterlimit:4;stroke-dasharray:none;stop-opacity:1"
           id="rect6502"
           width="21.013168"
           height="42.026337"
           x="55.182102"
           y="126.02136" />
        <rect
           style="opacity:1;fill:#000000;fill-opacity:1;stroke:#000000;stroke-width:2;stroke-linecap:round;stroke-linejoin:round;stroke-miterlimit:4;stroke-dasharray:none;stop-opacity:1"
           id="rect6504"
           width="8.2222233"
           height="2.7407413"
           x="61.577572"
           y="122.84023" />
        <rect
           inkscape:tile-y0="175.7844"
           inkscape:tile-x0="44.020282"
           y="136.69691"
           x="58.341446"
           height="6.4055209"
           width="14.694473"
           id="rect6508"
           style="opacity:1;fill:#000000;fill-opacity:1;stroke:none;stroke-width:2;stroke-linecap:round;stroke-linejoin:miter;stroke-miterlimit:4;stroke-dasharray:none;stop-opacity:1" />
        <rect
           inkscape:tile-y0="175.7844"
           inkscape:tile-x0="44.020282"
           y="143.87111"
           x="58.341446"
           height="6.4055209"
           width="14.694473"
           id="rect6510"
           style="opacity:1;fill:#000000;fill-opacity:1;stroke:none;stroke-width:2;stroke-linecap:round;stroke-linejoin:miter;stroke-miterlimit:4;stroke-dasharray:none;stop-opacity:1" />
        <rect
           inkscape:tile-y0="175.7844"
           inkscape:tile-x0="44.020282"
           y="151.04529"
           x="58.341446"
           height="6.4055209"
           width="14.694473"
           id="rect6512"
           style="opacity:1;fill:#000000;fill-opacity:1;stroke:none;stroke-width:2;stroke-linecap:round;stroke-linejoin:miter;stroke-miterlimit:4;stroke-dasharray:none;stop-opacity:1" />
        <rect
           inkscape:tile-y0="175.7844"
           inkscape:tile-x0="44.020282"
           y="158.21947"
           x="58.341446"
           height="6.4055209"
           width="14.694473"
           id="rect6514"
           style="opacity:1;fill:#000000;fill-opacity:1;stroke:none;stroke-width:2;stroke-linecap:round;stroke-linejoin:miter;stroke-miterlimit:4;stroke-dasharray:none;stop-opacity:1" />
      </g>
      <g
         id="g6602">
        <rect
           style="opacity:1;fill:none;stroke:#000000;stroke-width:2;stroke-linecap:round;stroke-linejoin:round;stroke-miterlimit:4;stroke-dasharray:none;stop-opacity:1"
           id="rect6525"
           width="21.013168"
           height="42.026337"
           x="80.496582"
           y="126.02136" />
        <rect
           style="opacity:1;fill:#000000;fill-opacity:1;stroke:#000000;stroke-width:2;stroke-linecap:round;stroke-linejoin:round;stroke-miterlimit:4;stroke-dasharray:none;stop-opacity:1"
           id="rect6527"
           width="8.2222233"
           height="2.7407413"
           x="86.892059"
           y="122.84023" />
        <rect
           inkscape:tile-y0="175.7844"
           inkscape:tile-x0="44.020282"
           y="143.87111"
           x="83.65593"
           height="6.4055209"
           width="14.694473"
           id="rect6533"
           style="opacity:1;fill:#000000;fill-opacity:1;stroke:none;stroke-width:2;stroke-linecap:round;stroke-linejoin:miter;stroke-miterlimit:4;stroke-dasharray:none;stop-opacity:1" />
        <rect
           inkscape:tile-y0="175.7844"
           inkscape:tile-x0="44.020282"
           y="151.04529"
           x="83.65593"
           height="6.4055209"
           width="14.694473"
           id="rect6535"
           style="opacity:1;fill:#000000;fill-opacity:1;stroke:none;stroke-width:2;stroke-linecap:round;stroke-linejoin:miter;stroke-miterlimit:4;stroke-dasharray:none;stop-opacity:1" />
        <rect
           inkscape:tile-y0="175.7844"
           inkscape:tile-x0="44.020282"
           y="158.21947"
           x="83.65593"
           height="6.4055209"
           width="14.694473"
           id="rect6537"
           style="opacity:1;fill:#000000;fill-opacity:1;stroke:none;stroke-width:2;stroke-linecap:round;stroke-linejoin:miter;stroke-miterlimit:4;stroke-dasharray:none;stop-opacity:1" />
      </g>
      <g
         id="g6608">
        <rect
           style="opacity:1;fill:none;stroke:#000000;stroke-width:2;stroke-linecap:round;stroke-linejoin:round;stroke-miterlimit:4;stroke-dasharray:none;stop-opacity:1"
           id="rect6548"
           width="21.013168"
           height="42.026337"
           x="105.81107"
           y="126.02136" />
        <rect
           style="opacity:1;fill:#000000;fill-opacity:1;stroke:#000000;stroke-width:2;stroke-linecap:round;stroke-linejoin:round;stroke-miterlimit:4;stroke-dasharray:none;stop-opacity:1"
           id="rect6550"
           width="8.2222233"
           height="2.7407413"
           x="112.20654"
           y="122.84023" />
        <rect
           inkscape:tile-y0="175.7844"
           inkscape:tile-x0="44.020282"
           y="151.04529"
           x="108.97041"
           height="6.4055209"
           width="14.694473"
           id="rect6558"
           style="opacity:1;fill:#000000;fill-opacity:1;stroke:none;stroke-width:2;stroke-linecap:round;stroke-linejoin:miter;stroke-miterlimit:4;stroke-dasharray:none;stop-opacity:1" />
        <rect
           inkscape:tile-y0="175.7844"
           inkscape:tile-x0="44.020282"
           y="158.21947"
           x="108.97041"
           height="6.4055209"
           width="14.694473"
           id="rect6560"
           style="opacity:1;fill:#000000;fill-opacity:1;stroke:none;stroke-width:2;stroke-linecap:round;stroke-linejoin:miter;stroke-miterlimit:4;stroke-dasharray:none;stop-opacity:1" />
      </g>
    </g>
  </g>
</svg>
